{
"courseId" : 1,
"name" : " Intro to HTML",
"price" : 9999,
"description" : "In here you will learn the basic of HTML",
"slots" :30,
"isActive" : true,
"enrollees" : [{
	"userId" : 1
}]

}

{
"courseId" : 2,
"name" : " Intro to Javascript",
"price" : 9999,
"description" : "In here you will learn the basic of Javascript",
"slots" :30,
"isActive" : true,
"enrollees" : [{
	"userId" : 1
}]

}